Calculadora-Verilog/cpu_tb.vcd
$date
	Mon Apr 17 12:51:20 2017
$end
$version
	Icarus Verilog
$end
$timescale
	10ps
$end
$scope module cpu_tb $end
$var wire 10 ! PC_out [9:0] $end
$var wire 8 " ps0 [7:0] $end
$var wire 8 # ps1 [7:0] $end
$var wire 8 $ ps2 [7:0] $end
$var wire 8 % ps3 [7:0] $end
$var reg 8 & Pe0 [7:0] $end
$var reg 8 ' Pe1 [7:0] $end
$var reg 8 ( Pe2 [7:0] $end
$var reg 8 ) Pe3 [7:0] $end
$var reg 1 * clk $end
$var reg 1 + reset $end
$scope module cpu_monociclo $end
$var wire 10 , PC_out [9:0] $end
$var wire 8 - Pe0 [7:0] $end
$var wire 8 . Pe1 [7:0] $end
$var wire 8 / Pe2 [7:0] $end
$var wire 8 0 Pe3 [7:0] $end
$var wire 1 1 clk $end
$var wire 1 2 dec_enable $end
$var wire 1 3 enable_jal $end
$var wire 3 4 op [2:0] $end
$var wire 6 5 opcode [5:0] $end
$var wire 8 6 ps0 [7:0] $end
$var wire 8 7 ps1 [7:0] $end
$var wire 8 8 ps2 [7:0] $end
$var wire 8 9 ps3 [7:0] $end
$var wire 1 : reset $end
$var wire 1 ; s_epe $end
$var wire 1 < s_inc $end
$var wire 1 = s_inm $end
$var wire 1 > s_jal $end
$var wire 1 ? s_sps $end
$var wire 1 @ we3 $end
$var wire 1 A z $end
$scope module camino $end
$var wire 10 B PC_in [9:0] $end
$var wire 10 C PC_out [9:0] $end
$var wire 8 D Pe0 [7:0] $end
$var wire 8 E Pe1 [7:0] $end
$var wire 8 F Pe2 [7:0] $end
$var wire 8 G Pe3 [7:0] $end
$var wire 8 H alu_out [7:0] $end
$var wire 1 1 clk $end
$var wire 1 2 dec_enable $end
$var wire 1 3 enable_jal $end
$var wire 10 I jal_out [9:0] $end
$var wire 10 J jal_toPC [9:0] $end
$var wire 10 K jalsum_out [9:0] $end
$var wire 16 L mem_out [15:0] $end
$var wire 3 M op [2:0] $end
$var wire 6 N opcode [5:0] $end
$var wire 8 O ps0 [7:0] $end
$var wire 8 P ps1 [7:0] $end
$var wire 8 Q ps2 [7:0] $end
$var wire 8 R ps3 [7:0] $end
$var wire 8 S rd1_out [7:0] $end
$var wire 8 T rd2_out [7:0] $end
$var wire 1 : reset $end
$var wire 1 ; s_epe $end
$var wire 1 < s_inc $end
$var wire 1 = s_inm $end
$var wire 1 > s_jal $end
$var wire 1 ? s_sps $end
$var wire 8 U sal_epe [7:0] $end
$var wire 8 V sal_mux4 [7:0] $end
$var wire 8 W sal_sps [7:0] $end
$var wire 1 X saldec0 $end
$var wire 1 Y saldec1 $end
$var wire 1 Z saldec2 $end
$var wire 1 [ saldec3 $end
$var wire 10 \ sum_out [9:0] $end
$var wire 8 ] wd3 [7:0] $end
$var wire 1 @ we3 $end
$var wire 1 A z $end
$scope module PC $end
$var wire 1 1 clk $end
$var wire 10 ^ d [9:0] $end
$var wire 1 : reset $end
$var reg 10 _ q [9:0] $end
$upscope $end
$scope module reg_jal $end
$var wire 1 1 clk $end
$var wire 10 ` d [9:0] $end
$var wire 1 3 enable $end
$var wire 1 : reset $end
$var reg 10 a q [9:0] $end
$upscope $end
$scope module sumadorJAL $end
$var wire 10 b a [9:0] $end
$var wire 10 c b [9:0] $end
$var wire 10 d y [9:0] $end
$upscope $end
$scope module mux_jal $end
$var wire 10 e d0 [9:0] $end
$var wire 10 f d1 [9:0] $end
$var wire 1 > s $end
$var wire 10 g y [9:0] $end
$upscope $end
$scope module sumadorPC $end
$var wire 10 h a [9:0] $end
$var wire 10 i b [9:0] $end
$var wire 10 j y [9:0] $end
$upscope $end
$scope module muxPC $end
$var wire 10 k d0 [9:0] $end
$var wire 10 l d1 [9:0] $end
$var wire 1 < s $end
$var wire 10 m y [9:0] $end
$upscope $end
$scope module memory $end
$var wire 10 n a [9:0] $end
$var wire 1 1 clk $end
$var wire 16 o rd [15:0] $end
$upscope $end
$scope module banco $end
$var wire 1 1 clk $end
$var wire 4 p ra1 [3:0] $end
$var wire 4 q ra2 [3:0] $end
$var wire 8 r rd1 [7:0] $end
$var wire 8 s rd2 [7:0] $end
$var wire 4 t wa3 [3:0] $end
$var wire 8 u wd3 [7:0] $end
$var wire 1 @ we3 $end
$upscope $end
$scope module alu0 $end
$var wire 8 v a [7:0] $end
$var wire 8 w b [7:0] $end
$var wire 3 x op [2:0] $end
$var wire 8 y y [7:0] $end
$var wire 1 A zero $end
$var reg 8 z s [7:0] $end
$upscope $end
$scope module muxREG $end
$var wire 8 { d0 [7:0] $end
$var wire 8 | d1 [7:0] $end
$var wire 1 = s $end
$var wire 8 } y [7:0] $end
$upscope $end
$scope module sps $end
$var wire 8 ~ d0 [7:0] $end
$var wire 8 !" d1 [7:0] $end
$var wire 1 ? s $end
$var wire 8 "" y [7:0] $end
$upscope $end
$scope module decodificador $end
$var wire 1 2 enable $end
$var wire 1 X sal0 $end
$var wire 1 Y sal1 $end
$var wire 1 Z sal2 $end
$var wire 1 [ sal3 $end
$var wire 1 #" sel0 $end
$var wire 1 $" sel1 $end
$upscope $end
$scope module port_sal0 $end
$var wire 1 1 clk $end
$var wire 8 %" d [7:0] $end
$var wire 1 X enable $end
$var wire 1 : reset $end
$var reg 8 &" q [7:0] $end
$upscope $end
$scope module port_sal1 $end
$var wire 1 1 clk $end
$var wire 8 '" d [7:0] $end
$var wire 1 Y enable $end
$var wire 1 : reset $end
$var reg 8 (" q [7:0] $end
$upscope $end
$scope module port_sal2 $end
$var wire 1 1 clk $end
$var wire 8 )" d [7:0] $end
$var wire 1 Z enable $end
$var wire 1 : reset $end
$var reg 8 *" q [7:0] $end
$upscope $end
$scope module port_sal3 $end
$var wire 1 1 clk $end
$var wire 8 +" d [7:0] $end
$var wire 1 [ enable $end
$var wire 1 : reset $end
$var reg 8 ," q [7:0] $end
$upscope $end
$scope module EntPort $end
$var wire 8 -" e0 [7:0] $end
$var wire 8 ." e1 [7:0] $end
$var wire 8 /" e2 [7:0] $end
$var wire 8 0" e3 [7:0] $end
$var wire 8 1" salida [7:0] $end
$var wire 2 2" sel [1:0] $end
$upscope $end
$scope module epe $end
$var wire 8 3" d0 [7:0] $end
$var wire 8 4" d1 [7:0] $end
$var wire 1 ; s $end
$var wire 8 5" y [7:0] $end
$upscope $end
$upscope $end
$scope module uc0 $end
$var wire 1 1 clk $end
$var wire 3 6" op [2:0] $end
$var wire 6 7" opcode [5:0] $end
$var wire 1 : reset $end
$var wire 1 A z $end
$var reg 1 8" dec_enable $end
$var reg 1 9" enable_jal $end
$var reg 1 :" s_epe $end
$var reg 1 ;" s_inc $end
$var reg 1 <" s_inm $end
$var reg 1 =" s_jal $end
$var reg 1 >" s_sps $end
$var reg 1 ?" we3 $end
$var reg 1 @" zer $end
$upscope $end
$upscope $end
$upscope $end
$enddefinitions $end
#0
$dumpvars
0@"
0?"
0>"
0="
0<"
1;"
0:"
09"
08"
b111010 7"
b10 6"
bx 5"
b10 4"
bx 3"
b1 2"
b10 1"
bx 0"
bx /"
b10 ."
b110 -"
b0 ,"
b100000 +"
b0 *"
b100000 )"
b0 ("
b100000 '"
b0 &"
b100000 %"
0$"
1#"
b100000 ""
b0 !"
b100000 ~
bx }
b111 |
bx {
bx z
bx y
b10 x
b0 w
bx v
bx u
b10 t
b0 s
bx r
b0 q
b111 p
b10000001111010 o
b0 n
b1 m
b1 l
b10000001 k
b1 j
b1 i
b0 h
b1 g
b1 f
b1 e
b1 d
b1 c
b0 b
b0 a
b0 `
b0 _
b1 ^
bx ]
b1 \
0[
0Z
0Y
0X
b100000 W
b10 V
bx U
b0 T
bx S
b0 R
b0 Q
b0 P
b0 O
b111010 N
b10 M
b10000001111010 L
b1 K
b1 J
b0 I
bx H
bx G
bx F
b10 E
b110 D
b0 C
b1 B
xA
0@
0?
0>
0=
1<
0;
1:
b0 9
b0 8
b0 7
b0 6
b111010 5
b10 4
03
02
11
bx 0
bx /
b10 .
b110 -
b0 ,
1+
1*
bx )
bx (
b10 '
b110 &
b0 %
b0 $
b0 #
b0 "
b0 !
$end
#500
b10 U
b10 u
b10 5"
1?"
1@
1:"
1;
0+
0:
#1000
0*
01
#2000
1X
0?"
0@
18"
12
1>"
1?
0:"
0;
bx U
bx u
bx 5"
b10 J
b10 ^
b10 g
b110 V
b110 1"
b110 4"
b10 W
b10 ""
b10 %"
b10 '"
b10 )"
b10 +"
b10 T
b10 s
b10 w
b10 !"
b10 B
b10 e
b10 m
b0 2"
0#"
b10 ~
b11010 5
b11010 N
b11010 7"
b100001 |
b0 t
b10 q
b1 p
b1000 k
b1 _
b10 \
b10 j
b10 l
b1000011010 L
b1000011010 o
b1 !
b1 ,
b1 C
b1 `
b1 h
b1 n
1*
11
#3000
0*
01
#4000
1?"
1@
08"
02
0>"
0?
0X
0Y
0Z
0[
bx W
bx ""
bx %"
bx '"
bx )"
bx +"
b11 J
b11 ^
b11 g
bx V
bx 1"
bx 4"
bx 4
bx M
bx x
bx 6"
bx T
bx s
bx w
bx !"
b11 B
b11 e
b11 m
bx 2"
x$"
x#"
bx ~
bx 5
bx N
bx 7"
bx |
bx t
bx q
bx p
bx k
b10 _
b11 \
b11 j
b11 l
bx L
bx o
b10 !
b10 ,
b10 C
b10 `
b10 h
b10 n
b10 &"
b10 "
b10 6
b10 O
1*
11
#5000
0*
01
#6000
b100 J
b100 ^
b100 g
b100 B
b100 e
b100 m
b11 _
b100 \
b100 j
b100 l
b11 !
b11 ,
b11 C
b11 `
b11 h
b11 n
1*
11
#7000
0*
01
#8000
b101 J
b101 ^
b101 g
b101 B
b101 e
b101 m
b100 _
b101 \
b101 j
b101 l
b100 !
b100 ,
b100 C
b100 `
b100 h
b100 n
1*
11
#9000
0*
01
#10000
b110 J
b110 ^
b110 g
b110 B
b110 e
b110 m
b101 _
b110 \
b110 j
b110 l
b101 !
b101 ,
b101 C
b101 `
b101 h
b101 n
1*
11
#11000
0*
01
#12000
b111 J
b111 ^
b111 g
b111 B
b111 e
b111 m
b110 _
b111 \
b111 j
b111 l
b110 !
b110 ,
b110 C
b110 `
b110 h
b110 n
1*
11
#13000
0*
01
#14000
b1000 J
b1000 ^
b1000 g
b1000 B
b1000 e
b1000 m
b111 _
b1000 \
b1000 j
b1000 l
b111 !
b111 ,
b111 C
b111 `
b111 h
b111 n
1*
11
#15000
0*
01
#16000
b1001 J
b1001 ^
b1001 g
b1001 B
b1001 e
b1001 m
b1000 _
b1001 \
b1001 j
b1001 l
b1000 !
b1000 ,
b1000 C
b1000 `
b1000 h
b1000 n
1*
11
#17000
0*
01
#18000
b1010 J
b1010 ^
b1010 g
b1010 B
b1010 e
b1010 m
b1001 _
b1010 \
b1010 j
b1010 l
b1001 !
b1001 ,
b1001 C
b1001 `
b1001 h
b1001 n
1*
11
#19000
0*
01
#20000
b1011 J
b1011 ^
b1011 g
b1011 B
b1011 e
b1011 m
b1010 _
b1011 \
b1011 j
b1011 l
b1010 !
b1010 ,
b1010 C
b1010 `
b1010 h
b1010 n
1*
11
#21000
0*
01
#22000
b1100 J
b1100 ^
b1100 g
b1100 B
b1100 e
b1100 m
b1011 _
b1100 \
b1100 j
b1100 l
b1011 !
b1011 ,
b1011 C
b1011 `
b1011 h
b1011 n
1*
11
#23000
0*
01
#24000
b1101 J
b1101 ^
b1101 g
b1101 B
b1101 e
b1101 m
b1100 _
b1101 \
b1101 j
b1101 l
b1100 !
b1100 ,
b1100 C
b1100 `
b1100 h
b1100 n
1*
11
#25000
0*
01
#26000
b1110 J
b1110 ^
b1110 g
b1110 B
b1110 e
b1110 m
b1101 _
b1110 \
b1110 j
b1110 l
b1101 !
b1101 ,
b1101 C
b1101 `
b1101 h
b1101 n
1*
11
#27000
0*
01
#28000
b1111 J
b1111 ^
b1111 g
b1111 B
b1111 e
b1111 m
b1110 _
b1111 \
b1111 j
b1111 l
b1110 !
b1110 ,
b1110 C
b1110 `
b1110 h
b1110 n
1*
11
#29000
0*
01
#30000
b10000 J
b10000 ^
b10000 g
b10000 B
b10000 e
b10000 m
b1111 _
b10000 \
b10000 j
b10000 l
b1111 !
b1111 ,
b1111 C
b1111 `
b1111 h
b1111 n
1*
11
#30400
b0 '
b0 .
b0 E
b0 ."
#31000
0*
01
#32000
b10001 J
b10001 ^
b10001 g
b10001 B
b10001 e
b10001 m
b10000 _
b10001 \
b10001 j
b10001 l
b10000 !
b10000 ,
b10000 C
b10000 `
b10000 h
b10000 n
1*
11
#33000
0*
01
#34000
b10010 J
b10010 ^
b10010 g
b10010 B
b10010 e
b10010 m
b10001 _
b10010 \
b10010 j
b10010 l
b10001 !
b10001 ,
b10001 C
b10001 `
b10001 h
b10001 n
1*
11
#35000
0*
01
#36000
b10011 J
b10011 ^
b10011 g
b10011 B
b10011 e
b10011 m
b10010 _
b10011 \
b10011 j
b10011 l
b10010 !
b10010 ,
b10010 C
b10010 `
b10010 h
b10010 n
1*
11
#37000
0*
01
#38000
b10100 J
b10100 ^
b10100 g
b10100 B
b10100 e
b10100 m
b10011 _
b10100 \
b10100 j
b10100 l
b10011 !
b10011 ,
b10011 C
b10011 `
b10011 h
b10011 n
1*
11
#39000
0*
01
#40000
b10101 J
b10101 ^
b10101 g
b10101 B
b10101 e
b10101 m
b10100 _
b10101 \
b10101 j
b10101 l
b10100 !
b10100 ,
b10100 C
b10100 `
b10100 h
b10100 n
1*
11
#41000
0*
01
#42000
b10110 J
b10110 ^
b10110 g
b10110 B
b10110 e
b10110 m
b10101 _
b10110 \
b10110 j
b10110 l
b10101 !
b10101 ,
b10101 C
b10101 `
b10101 h
b10101 n
1*
11
#43000
0*
01
#44000
b10111 J
b10111 ^
b10111 g
b10111 B
b10111 e
b10111 m
b10110 _
b10111 \
b10111 j
b10111 l
b10110 !
b10110 ,
b10110 C
b10110 `
b10110 h
b10110 n
1*
11
#45000
0*
01
#46000
b11000 J
b11000 ^
b11000 g
b11000 B
b11000 e
b11000 m
b10111 _
b11000 \
b11000 j
b11000 l
b10111 !
b10111 ,
b10111 C
b10111 `
b10111 h
b10111 n
1*
11
#47000
0*
01
#48000
b11001 J
b11001 ^
b11001 g
b11001 B
b11001 e
b11001 m
b11000 _
b11001 \
b11001 j
b11001 l
b11000 !
b11000 ,
b11000 C
b11000 `
b11000 h
b11000 n
1*
11
#49000
0*
01
#50000
b11010 J
b11010 ^
b11010 g
b11010 B
b11010 e
b11010 m
b11001 _
b11010 \
b11010 j
b11010 l
b11001 !
b11001 ,
b11001 C
b11001 `
b11001 h
b11001 n
1*
11
#51000
0*
01
#52000
b11011 J
b11011 ^
b11011 g
b11011 B
b11011 e
b11011 m
b11010 _
b11011 \
b11011 j
b11011 l
b11010 !
b11010 ,
b11010 C
b11010 `
b11010 h
b11010 n
1*
11
#53000
0*
01
#54000
b11100 J
b11100 ^
b11100 g
b11100 B
b11100 e
b11100 m
b11011 _
b11100 \
b11100 j
b11100 l
b11011 !
b11011 ,
b11011 C
b11011 `
b11011 h
b11011 n
1*
11
#55000
0*
01
#56000
b11101 J
b11101 ^
b11101 g
b11101 B
b11101 e
b11101 m
b11100 _
b11101 \
b11101 j
b11101 l
b11100 !
b11100 ,
b11100 C
b11100 `
b11100 h
b11100 n
1*
11
#57000
0*
01
#58000
b11110 J
b11110 ^
b11110 g
b11110 B
b11110 e
b11110 m
b11101 _
b11110 \
b11110 j
b11110 l
b11101 !
b11101 ,
b11101 C
b11101 `
b11101 h
b11101 n
1*
11
#59000
0*
01
#60000
b11111 J
b11111 ^
b11111 g
b11111 B
b11111 e
b11111 m
b11110 _
b11111 \
b11111 j
b11111 l
b11110 !
b11110 ,
b11110 C
b11110 `
b11110 h
b11110 n
1*
11
#60300
b10 '
b10 .
b10 E
b10 ."
#61000
0*
01
#62000
b100000 J
b100000 ^
b100000 g
b100000 B
b100000 e
b100000 m
b11111 _
b100000 \
b100000 j
b100000 l
b11111 !
b11111 ,
b11111 C
b11111 `
b11111 h
b11111 n
1*
11
#63000
0*
01
#64000
b100001 J
b100001 ^
b100001 g
b100001 B
b100001 e
b100001 m
b100000 _
b100001 \
b100001 j
b100001 l
b100000 !
b100000 ,
b100000 C
b100000 `
b100000 h
b100000 n
1*
11
#65000
0*
01
#66000
b100010 J
b100010 ^
b100010 g
b100010 B
b100010 e
b100010 m
b100001 _
b100010 \
b100010 j
b100010 l
b100001 !
b100001 ,
b100001 C
b100001 `
b100001 h
b100001 n
1*
11
#67000
0*
01
#68000
b100011 J
b100011 ^
b100011 g
b100011 B
b100011 e
b100011 m
b100010 _
b100011 \
b100011 j
b100011 l
b100010 !
b100010 ,
b100010 C
b100010 `
b100010 h
b100010 n
1*
11
#69000
0*
01
#70000
b100100 J
b100100 ^
b100100 g
b100100 B
b100100 e
b100100 m
b100011 _
b100100 \
b100100 j
b100100 l
b100011 !
b100011 ,
b100011 C
b100011 `
b100011 h
b100011 n
1*
11
#71000
0*
01
#72000
b100101 J
b100101 ^
b100101 g
b100101 B
b100101 e
b100101 m
b100100 _
b100101 \
b100101 j
b100101 l
b100100 !
b100100 ,
b100100 C
b100100 `
b100100 h
b100100 n
1*
11
#73000
0*
01
#74000
b100110 J
b100110 ^
b100110 g
b100110 B
b100110 e
b100110 m
b100101 _
b100110 \
b100110 j
b100110 l
b100101 !
b100101 ,
b100101 C
b100101 `
b100101 h
b100101 n
1*
11
#75000
0*
01
#76000
b100111 J
b100111 ^
b100111 g
b100111 B
b100111 e
b100111 m
b100110 _
b100111 \
b100111 j
b100111 l
b100110 !
b100110 ,
b100110 C
b100110 `
b100110 h
b100110 n
1*
11
#77000
0*
01
#78000
b101000 J
b101000 ^
b101000 g
b101000 B
b101000 e
b101000 m
b100111 _
b101000 \
b101000 j
b101000 l
b100111 !
b100111 ,
b100111 C
b100111 `
b100111 h
b100111 n
1*
11
#79000
0*
01
#80000
b101001 J
b101001 ^
b101001 g
b101001 B
b101001 e
b101001 m
b101000 _
b101001 \
b101001 j
b101001 l
b101000 !
b101000 ,
b101000 C
b101000 `
b101000 h
b101000 n
1*
11
#81000
0*
01
#82000
b101010 J
b101010 ^
b101010 g
b101010 B
b101010 e
b101010 m
b101001 _
b101010 \
b101010 j
b101010 l
b101001 !
b101001 ,
b101001 C
b101001 `
b101001 h
b101001 n
1*
11
#83000
0*
01
#84000
b101011 J
b101011 ^
b101011 g
b101011 B
b101011 e
b101011 m
b101010 _
b101011 \
b101011 j
b101011 l
b101010 !
b101010 ,
b101010 C
b101010 `
b101010 h
b101010 n
1*
11
#85000
0*
01
#86000
b101100 J
b101100 ^
b101100 g
b101100 B
b101100 e
b101100 m
b101011 _
b101100 \
b101100 j
b101100 l
b101011 !
b101011 ,
b101011 C
b101011 `
b101011 h
b101011 n
1*
11
#87000
0*
01
#88000
b101101 J
b101101 ^
b101101 g
b101101 B
b101101 e
b101101 m
b101100 _
b101101 \
b101101 j
b101101 l
b101100 !
b101100 ,
b101100 C
b101100 `
b101100 h
b101100 n
1*
11
#89000
0*
01
#90000
b101110 J
b101110 ^
b101110 g
b101110 B
b101110 e
b101110 m
b101101 _
b101110 \
b101110 j
b101110 l
b101101 !
b101101 ,
b101101 C
b101101 `
b101101 h
b101101 n
1*
11
#91000
0*
01
#92000
b101111 J
b101111 ^
b101111 g
b101111 B
b101111 e
b101111 m
b101110 _
b101111 \
b101111 j
b101111 l
b101110 !
b101110 ,
b101110 C
b101110 `
b101110 h
b101110 n
1*
11
#93000
0*
01
#94000
b110000 J
b110000 ^
b110000 g
b110000 B
b110000 e
b110000 m
b101111 _
b110000 \
b110000 j
b110000 l
b101111 !
b101111 ,
b101111 C
b101111 `
b101111 h
b101111 n
1*
11
#95000
0*
01
#96000
b110001 J
b110001 ^
b110001 g
b110001 B
b110001 e
b110001 m
b110000 _
b110001 \
b110001 j
b110001 l
b110000 !
b110000 ,
b110000 C
b110000 `
b110000 h
b110000 n
1*
11
#97000
0*
01
#98000
b110010 J
b110010 ^
b110010 g
b110010 B
b110010 e
b110010 m
b110001 _
b110010 \
b110010 j
b110010 l
b110001 !
b110001 ,
b110001 C
b110001 `
b110001 h
b110001 n
1*
11
#99000
0*
01
#100000
b110011 J
b110011 ^
b110011 g
b110011 B
b110011 e
b110011 m
b110010 _
b110011 \
b110011 j
b110011 l
b110010 !
b110010 ,
b110010 C
b110010 `
b110010 h
b110010 n
1*
11
#101000
0*
01
#102000
b110100 J
b110100 ^
b110100 g
b110100 B
b110100 e
b110100 m
b110011 _
b110100 \
b110100 j
b110100 l
b110011 !
b110011 ,
b110011 C
b110011 `
b110011 h
b110011 n
1*
11
#103000
0*
01
#104000
b110101 J
b110101 ^
b110101 g
b110101 B
b110101 e
b110101 m
b110100 _
b110101 \
b110101 j
b110101 l
b110100 !
b110100 ,
b110100 C
b110100 `
b110100 h
b110100 n
1*
11
#105000
0*
01
#106000
b110110 J
b110110 ^
b110110 g
b110110 B
b110110 e
b110110 m
b110101 _
b110110 \
b110110 j
b110110 l
b110101 !
b110101 ,
b110101 C
b110101 `
b110101 h
b110101 n
1*
11
#107000
0*
01
#108000
b110111 J
b110111 ^
b110111 g
b110111 B
b110111 e
b110111 m
b110110 _
b110111 \
b110111 j
b110111 l
b110110 !
b110110 ,
b110110 C
b110110 `
b110110 h
b110110 n
1*
11
#109000
0*
01
#110000
b111000 J
b111000 ^
b111000 g
b111000 B
b111000 e
b111000 m
b110111 _
b111000 \
b111000 j
b111000 l
b110111 !
b110111 ,
b110111 C
b110111 `
b110111 h
b110111 n
1*
11
#111000
0*
01
#112000
b111001 J
b111001 ^
b111001 g
b111001 B
b111001 e
b111001 m
b111000 _
b111001 \
b111001 j
b111001 l
b111000 !
b111000 ,
b111000 C
b111000 `
b111000 h
b111000 n
1*
11
#113000
0*
01
#114000
b111010 J
b111010 ^
b111010 g
b111010 B
b111010 e
b111010 m
b111001 _
b111010 \
b111010 j
b111010 l
b111001 !
b111001 ,
b111001 C
b111001 `
b111001 h
b111001 n
1*
11
#115000
0*
01
#116000
b111011 J
b111011 ^
b111011 g
b111011 B
b111011 e
b111011 m
b111010 _
b111011 \
b111011 j
b111011 l
b111010 !
b111010 ,
b111010 C
b111010 `
b111010 h
b111010 n
1*
11
#117000
0*
01
#118000
b111100 J
b111100 ^
b111100 g
b111100 B
b111100 e
b111100 m
b111011 _
b111100 \
b111100 j
b111100 l
b111011 !
b111011 ,
b111011 C
b111011 `
b111011 h
b111011 n
1*
11
#119000
0*
01
#120000
b111101 J
b111101 ^
b111101 g
b111101 B
b111101 e
b111101 m
b111100 _
b111101 \
b111101 j
b111101 l
b111100 !
b111100 ,
b111100 C
b111100 `
b111100 h
b111100 n
1*
11
#121000
0*
01
#122000
b111110 J
b111110 ^
b111110 g
b111110 B
b111110 e
b111110 m
b111101 _
b111110 \
b111110 j
b111110 l
b111101 !
b111101 ,
b111101 C
b111101 `
b111101 h
b111101 n
1*
11
#123000
0*
01
#124000
b111111 J
b111111 ^
b111111 g
b111111 B
b111111 e
b111111 m
b111110 _
b111111 \
b111111 j
b111111 l
b111110 !
b111110 ,
b111110 C
b111110 `
b111110 h
b111110 n
1*
11
#125000
0*
01
#126000
b1000000 J
b1000000 ^
b1000000 g
b1000000 B
b1000000 e
b1000000 m
b111111 _
b1000000 \
b1000000 j
b1000000 l
b111111 !
b111111 ,
b111111 C
b111111 `
b111111 h
b111111 n
1*
11
#127000
0*
01
#128000
b1000001 J
b1000001 ^
b1000001 g
b1000001 B
b1000001 e
b1000001 m
b1000000 _
b1000001 \
b1000001 j
b1000001 l
b1000000 !
b1000000 ,
b1000000 C
b1000000 `
b1000000 h
b1000000 n
1*
11
#129000
0*
01
#130000
b1000010 J
b1000010 ^
b1000010 g
b1000010 B
b1000010 e
b1000010 m
b1000001 _
b1000010 \
b1000010 j
b1000010 l
b1000001 !
b1000001 ,
b1000001 C
b1000001 `
b1000001 h
b1000001 n
1*
11
#131000
0*
01
#132000
b1000011 J
b1000011 ^
b1000011 g
b1000011 B
b1000011 e
b1000011 m
b1000010 _
b1000011 \
b1000011 j
b1000011 l
b1000010 !
b1000010 ,
b1000010 C
b1000010 `
b1000010 h
b1000010 n
1*
11
#133000
0*
01
#134000
b1000100 J
b1000100 ^
b1000100 g
b1000100 B
b1000100 e
b1000100 m
b1000011 _
b1000100 \
b1000100 j
b1000100 l
b1000011 !
b1000011 ,
b1000011 C
b1000011 `
b1000011 h
b1000011 n
1*
11
#135000
0*
01
#136000
b1000101 J
b1000101 ^
b1000101 g
b1000101 B
b1000101 e
b1000101 m
b1000100 _
b1000101 \
b1000101 j
b1000101 l
b1000100 !
b1000100 ,
b1000100 C
b1000100 `
b1000100 h
b1000100 n
1*
11
#137000
0*
01
#138000
b1000110 J
b1000110 ^
b1000110 g
b1000110 B
b1000110 e
b1000110 m
b1000101 _
b1000110 \
b1000110 j
b1000110 l
b1000101 !
b1000101 ,
b1000101 C
b1000101 `
b1000101 h
b1000101 n
1*
11
#139000
0*
01
#140000
b1000111 J
b1000111 ^
b1000111 g
b1000111 B
b1000111 e
b1000111 m
b1000110 _
b1000111 \
b1000111 j
b1000111 l
b1000110 !
b1000110 ,
b1000110 C
b1000110 `
b1000110 h
b1000110 n
1*
11
#141000
0*
01
#142000
b1001000 J
b1001000 ^
b1001000 g
b1001000 B
b1001000 e
b1001000 m
b1000111 _
b1001000 \
b1001000 j
b1001000 l
b1000111 !
b1000111 ,
b1000111 C
b1000111 `
b1000111 h
b1000111 n
1*
11
#143000
0*
01
#144000
b1001001 J
b1001001 ^
b1001001 g
b1001001 B
b1001001 e
b1001001 m
b1001000 _
b1001001 \
b1001001 j
b1001001 l
b1001000 !
b1001000 ,
b1001000 C
b1001000 `
b1001000 h
b1001000 n
1*
11
#145000
0*
01
#146000
b1001010 J
b1001010 ^
b1001010 g
b1001010 B
b1001010 e
b1001010 m
b1001001 _
b1001010 \
b1001010 j
b1001010 l
b1001001 !
b1001001 ,
b1001001 C
b1001001 `
b1001001 h
b1001001 n
1*
11
#147000
0*
01
#148000
b1001011 J
b1001011 ^
b1001011 g
b1001011 B
b1001011 e
b1001011 m
b1001010 _
b1001011 \
b1001011 j
b1001011 l
b1001010 !
b1001010 ,
b1001010 C
b1001010 `
b1001010 h
b1001010 n
1*
11
#149000
0*
01
#150000
b1001100 J
b1001100 ^
b1001100 g
b1001100 B
b1001100 e
b1001100 m
b1001011 _
b1001100 \
b1001100 j
b1001100 l
b1001011 !
b1001011 ,
b1001011 C
b1001011 `
b1001011 h
b1001011 n
1*
11
#151000
0*
01
#152000
b1001101 J
b1001101 ^
b1001101 g
b1001101 B
b1001101 e
b1001101 m
b1001100 _
b1001101 \
b1001101 j
b1001101 l
b1001100 !
b1001100 ,
b1001100 C
b1001100 `
b1001100 h
b1001100 n
1*
11
#153000
0*
01
#154000
b1001110 J
b1001110 ^
b1001110 g
b1001110 B
b1001110 e
b1001110 m
b1001101 _
b1001110 \
b1001110 j
b1001110 l
b1001101 !
b1001101 ,
b1001101 C
b1001101 `
b1001101 h
b1001101 n
1*
11
#155000
0*
01
#156000
b1001111 J
b1001111 ^
b1001111 g
b1001111 B
b1001111 e
b1001111 m
b1001110 _
b1001111 \
b1001111 j
b1001111 l
b1001110 !
b1001110 ,
b1001110 C
b1001110 `
b1001110 h
b1001110 n
1*
11
#157000
0*
01
#158000
b1010000 J
b1010000 ^
b1010000 g
b1010000 B
b1010000 e
b1010000 m
b1001111 _
b1010000 \
b1010000 j
b1010000 l
b1001111 !
b1001111 ,
b1001111 C
b1001111 `
b1001111 h
b1001111 n
1*
11
#159000
0*
01
#160000
b1010001 J
b1010001 ^
b1010001 g
b1010001 B
b1010001 e
b1010001 m
b1010000 _
b1010001 \
b1010001 j
b1010001 l
b1010000 !
b1010000 ,
b1010000 C
b1010000 `
b1010000 h
b1010000 n
1*
11
#161000
0*
01
#162000
b1010010 J
b1010010 ^
b1010010 g
b1010010 B
b1010010 e
b1010010 m
b1010001 _
b1010010 \
b1010010 j
b1010010 l
b1010001 !
b1010001 ,
b1010001 C
b1010001 `
b1010001 h
b1010001 n
1*
11
#163000
0*
01
#164000
b1010011 J
b1010011 ^
b1010011 g
b1010011 B
b1010011 e
b1010011 m
b1010010 _
b1010011 \
b1010011 j
b1010011 l
b1010010 !
b1010010 ,
b1010010 C
b1010010 `
b1010010 h
b1010010 n
1*
11
#165000
0*
01
#166000
b1010100 J
b1010100 ^
b1010100 g
b1010100 B
b1010100 e
b1010100 m
b1010011 _
b1010100 \
b1010100 j
b1010100 l
b1010011 !
b1010011 ,
b1010011 C
b1010011 `
b1010011 h
b1010011 n
1*
11
#167000
0*
01
#168000
b1010101 J
b1010101 ^
b1010101 g
b1010101 B
b1010101 e
b1010101 m
b1010100 _
b1010101 \
b1010101 j
b1010101 l
b1010100 !
b1010100 ,
b1010100 C
b1010100 `
b1010100 h
b1010100 n
1*
11
#169000
0*
01
#170000
b1010110 J
b1010110 ^
b1010110 g
b1010110 B
b1010110 e
b1010110 m
b1010101 _
b1010110 \
b1010110 j
b1010110 l
b1010101 !
b1010101 ,
b1010101 C
b1010101 `
b1010101 h
b1010101 n
1*
11
#171000
0*
01
#172000
b1010111 J
b1010111 ^
b1010111 g
b1010111 B
b1010111 e
b1010111 m
b1010110 _
b1010111 \
b1010111 j
b1010111 l
b1010110 !
b1010110 ,
b1010110 C
b1010110 `
b1010110 h
b1010110 n
1*
11
#173000
0*
01
#174000
b1011000 J
b1011000 ^
b1011000 g
b1011000 B
b1011000 e
b1011000 m
b1010111 _
b1011000 \
b1011000 j
b1011000 l
b1010111 !
b1010111 ,
b1010111 C
b1010111 `
b1010111 h
b1010111 n
1*
11
#175000
0*
01
