Calculadora-Verilog/prueba_cpu_tb.vcd
$date
	Mon Mar 20 13:33:11 2017
$end
$version
	GTKWave Analyzer v3.3.58 (w)1999-2014 BSI
$end
$timescale
	10ps
$end
$scope module cpu_tb $end
$var wire 1 # reset $end
$var wire 1 " clk $end
$scope module cpu_monociclo $end
$var wire 1 + z $end
$var wire 1 * we3 $end
$var wire 1 ) s_sps $end
$var wire 1 ( s_jal $end
$var wire 1 & s_inc $end
$var wire 1 % s_epe $end
$var wire 1 ' s_inm $end
$var wire 6 $ opcode[5:0] $end
$scope module camino $end
$scope module banco $end
$var wire 8 , rd1[7:0] $end
$var wire 8 - rd2[7:0] $end
$var wire 8 . wd3[7:0] $end
$upscope $end
$upscope $end
$upscope $end
$upscope $end
$enddefinitions $end
$dumpvars
#0
1&
b11000 $
0*
1#
1"
x)
x%
0'
bx .
0(
bx ,
x+
b0 -
#500
0%
1*
0#
1'
b1 .
#1000
0"
#2000
1"
b1111 .
0&
b111001 $
0*
#3000
0"
#4000
1"
1*
b11000 $
b101 .
1&
#5000
0"
#6000
1"
bx .
bx -
b10010 $
0'
#7000
0"
#8000
1"
b0 -
0*
b0 .
b1010 $
1(
1+
b0 ,
#9000
0"
#10000
1"
bx ,
1*
1'
x+
b111000 $
b11 .
0(
#11000
0"
#12000
1"
b101 .
b11000 $
#13000
0"
#14000
1"
b11 ,
b11 -
b10010 $
0+
0'
b110 .
#15000
0"
#16000
1"
b0 .
1(
0*
b0 ,
b1010 $
b0 -
1+
#17000
0"
#18000
1"
x+
1*
b11 .
0(
bx ,
1'
b111000 $
#19000
0"
#20000
1"
b11000 $
b101 .
#21000
0"
#22000
1"
b110 .
b10010 $
0+
0'
b11 -
b11 ,
#23000
0"
#24000
1"
b0 ,
b1010 $
b0 .
0*
b0 -
1+
1(
#25000
0"
#26000
1"
0(
b11 .
bx ,
b111000 $
x+
1*
1'
#27000
0"
#28000
1"
b101 .
b11000 $
#29000
0"
#30000
1"
b10010 $
b11 ,
0'
b110 .
b11 -
0+
#31000
0"
#32000
1"
1+
b0 ,
1(
b1010 $
b0 -
0*
b0 .
#33000
0"
#34000
1"
b11 .
0(
x+
bx ,
1*
b111000 $
1'
#35000
0"
#36000
1"
b101 .
b11000 $
#37000
0"
#38000
1"
b10010 $
0'
0+
b110 .
b11 ,
b11 -
#39000
0"
#40000
1"
b0 -
b1010 $
1(
b0 ,
1+
0*
b0 .
#41000
0"
#42000
1"
b11 .
b111000 $
1'
1*
bx ,
0(
x+
#43000
0"
#44000
1"
b11000 $
b101 .
#45000
0"
#46000
1"
b110 .
b10010 $
0+
b11 -
0'
b11 ,
#47000
0"
#48000
1"
b0 ,
1+
b0 .
b1010 $
1(
0*
b0 -
#49000
0"
#50000
1"
b11 .
bx ,
x+
1*
b111000 $
1'
0(
#51000
0"
#52000
1"
b101 .
b11000 $
#53000
0"
#54000
1"
b10010 $
b11 ,
b11 -
b110 .
0+
0'
#55000
0"
#56000
1"
b0 ,
b1010 $
1(
1+
b0 -
0*
b0 .
#57000
0"
#58000
1"
b11 .
b111000 $
1'
bx ,
1*
x+
0(
#59000
0"
#60000
1"
b101 .
b11000 $
#61000
0"
#62000
1"
b10010 $
0'
b110 .
0+
b11 ,
b11 -
#63000
0"
#64000
1"
b0 -
1(
b1010 $
b0 ,
b0 .
0*
1+
#65000
0"
#66000
1"
x+
0(
1'
1*
bx ,
b111000 $
b11 .
#67000
0"
#68000
1"
b101 .
b11000 $
#69000
0"
#70000
1"
b10010 $
0+
b11 -
b110 .
0'
b11 ,
#71000
0"
#72000
1"
b0 ,
1+
1(
b1010 $
b0 -
0*
b0 .
#73000
0"
#74000
1"
b11 .
0(
bx ,
x+
1*
b111000 $
1'
#75000
0"
#76000
1"
b101 .
b11000 $
#77000
0"
#78000
1"
b10010 $
0'
b11 ,
b110 .
0+
b11 -
#79000
0"
#80000
1"
b0 -
b1010 $
1(
1+
b0 ,
0*
b0 .
#81000
0"
#82000
1"
b11 .
b111000 $
1'
1*
x+
0(
bx ,
#83000
0"
#84000
1"
b11000 $
b101 .
#85000
0"
#86000
1"
b110 .
b10010 $
b11 ,
b11 -
0'
0+
#87000
0"
#88000
1"
1+
b0 ,
b0 .
b1010 $
1(
0*
b0 -
#89000
0"
#90000
1"
b11 .
x+
bx ,
1*
b111000 $
1'
0(
#91000
0"
#92000
1"
b101 .
b11000 $
#93000
0"
#94000
1"
b10010 $
0+
b11 -
b110 .
b11 ,
0'
#95000
0"
#96000
1"
1+
b1010 $
1(
b0 ,
b0 -
0*
b0 .
#97000
0"
#98000
1"
b11 .
b111000 $
1'
x+
1*
bx ,
0(
#99000
0"
#100000
1"
b101 .
b11000 $
#101000
0"
#102000
1"
b10010 $
0'
b110 .
b11 ,
0+
b11 -
#103000
0"
#104000
1"
b0 -
1(
b1010 $
1+
b0 .
0*
b0 ,
#105000
0"
#106000
1"
bx ,
0(
1'
1*
x+
b111000 $
b11 .
#107000
0"
#108000
1"
b101 .
b11000 $
#109000
0"
#110000
1"
b10010 $
b11 ,
b11 -
b110 .
0'
0+
#111000
0"
#112000
1"
1+
b0 ,
1(
b1010 $
b0 -
0*
b0 .
#113000
0"
#114000
1"
b11 .
0(
x+
bx ,
1*
b111000 $
1'
#115000
0"
#116000
1"
b101 .
b11000 $
#117000
0"
#118000
1"
b10010 $
0'
0+
b110 .
b11 ,
b11 -
#119000
0"
#120000
1"
b0 -
b1010 $
1(
b0 ,
1+
0*
b0 .
#121000
0"
#122000
1"
b11 .
b111000 $
1'
1*
bx ,
0(
x+
#123000
0"
#124000
1"
b11000 $
b101 .
#125000
0"
#126000
1"
b110 .
b10010 $
0+
b11 -
0'
b11 ,
#127000
0"
#128000
1"
b0 ,
1+
b0 .
b1010 $
1(
0*
b0 -
#129000
0"
#130000
1"
b11 .
bx ,
x+
1*
b111000 $
1'
0(
#131000
0"
#132000
1"
b101 .
b11000 $
#133000
0"
#134000
1"
b10010 $
b11 ,
b11 -
b110 .
0+
0'
#135000
0"
#136000
1"
b0 ,
b1010 $
1(
1+
b0 -
0*
b0 .
#137000
0"
#138000
1"
b11 .
b111000 $
1'
bx ,
1*
x+
0(
#139000
0"
#140000
1"
b101 .
b11000 $
#141000
0"
#142000
1"
b10010 $
0'
b110 .
0+
b11 ,
b11 -
#143000
0"
#144000
1"
b0 -
1(
b1010 $
b0 ,
b0 .
0*
1+
#145000
0"
#146000
1"
x+
0(
1'
1*
bx ,
b111000 $
b11 .
#147000
0"
#148000
1"
b101 .
b11000 $
#149000
0"
#150000
1"
b10010 $
0+
b11 -
b110 .
0'
b11 ,
#151000
0"
#152000
1"
b0 ,
1+
1(
b1010 $
b0 -
0*
b0 .
#153000
0"
#154000
1"
b11 .
0(
bx ,
x+
1*
b111000 $
1'
#155000
0"
#156000
1"
b101 .
b11000 $
#157000
0"
#158000
1"
b10010 $
0'
b11 ,
b110 .
0+
b11 -
#159000
0"
#160000
1"
b0 -
b1010 $
1(
1+
b0 ,
0*
b0 .
#161000
0"
#162000
1"
b11 .
b111000 $
1'
1*
x+
0(
bx ,
#163000
0"
#164000
1"
b11000 $
b101 .
#165000
0"
#166000
1"
b110 .
b10010 $
b11 ,
b11 -
0'
0+
#167000
0"
#168000
1"
1+
b0 ,
b0 .
b1010 $
1(
0*
b0 -
#169000
0"
#170000
1"
b11 .
x+
bx ,
1*
b111000 $
1'
0(
#171000
0"
#172000
1"
b101 .
b11000 $
#173000
0"
#174000
1"
b10010 $
0+
b11 -
b110 .
b11 ,
0'
#175000
0"
#176000
1"
1+
b1010 $
1(
b0 ,
b0 -
0*
b0 .
#177000
0"
#178000
1"
b11 .
b111000 $
1'
x+
1*
bx ,
0(
#179000
0"
#180000
1"
b101 .
b11000 $
#181000
0"
#182000
1"
b10010 $
0'
b110 .
b11 ,
0+
b11 -
#183000
0"
#184000
1"
b0 -
1(
b1010 $
1+
b0 .
0*
b0 ,
#185000
0"
#186000
1"
bx ,
0(
1'
1*
x+
b111000 $
b11 .
#187000
0"
#188000
1"
b101 .
b11000 $
#189000
0"
#190000
1"
b10010 $
b11 ,
b11 -
b110 .
0'
0+
#191000
0"
#192000
1"
1+
b0 ,
1(
b1010 $
b0 -
0*
b0 .
#193000
0"
#194000
1"
b11 .
0(
x+
bx ,
1*
b111000 $
1'
#195000
0"
#196000
1"
b101 .
b11000 $
#197000
0"
#198000
1"
b10010 $
0'
0+
b110 .
b11 ,
b11 -
#199000
0"
#200000
1"
b0 -
b1010 $
1(
b0 ,
1+
0*
b0 .
